{
  "newsList" : [
    {
      "title": "UK News",
      "url": ""
    },
    {
      "title": "US News",
      "url": ""
    },
    {
      "title": "World News",
      "url": ""
    },
    {
      "title": "Weird News",
      "url": ""
    },
    {
      "title": "Crime",
      "url": ""
    },
    {
      "title": "Real Life Stories",
      "url": ""
    },
    {
      "title": "Science",
      "url": ""
    },
    {
      "title": "Health",
      "url": ""
    },
    {
      "title": "Motoring",
      "url": ""
    }
  ],
  "sportList" : [
    {
      "title": "World Cup 2018",
      "url": ""
    },
    {
      "title": "Boxing",
      "url": ""
    },
    {
      "title": "WWE",
      "url": ""
    },
    {
      "title": "F1",
      "url": ""
    },
    {
      "title": "Cricket",
      "url": ""
    },
    {
      "title": "Golf",
      "url": ""
    },
    {
      "title": "Tennis",
      "url": ""
    }
  ],
  "otherSportsList" : [
    {
      "title": "Rugby Union",
      "url": ""
    },
    {
      "title": "Rugby League",
      "url": ""
    },
    {
      "title": "UFC",
      "url": ""
    },
    {
      "title": "Athletics",
      "url": ""
    },
    {
      "title": "Darts",
      "url": ""
    }
  ],


  "newsLabel" : "News",
  "politicsLabel" : "Politics",
  "sportLabel" : "Sport",
  "othersportLabel" : "Other Sports",
  "expandLabel" : "Expand",
  "myAccountLabel" : "My Account",
  "subscription" : "Subscriptions",
  "signout" : "Sign Out",
  "loadnavigation" : "Load mobile navigation",
  "logoText" : "mirror",
  "teaserleft-img": {
  },
  "teaser-text": {
    "teaser-label-text": "Lorem ipsum dolor sit amet",
    "teaser-headline-text": "Lorem ipsum dolor sit amet, consectetur adipisicing elit, consectetur adipisicing elit,",
    "teaser-comment-text": "",
    "teaser-description-text": "Lorem ipsum dolor sit amet, consectetur adipisicing elit,consectetur adipisicing elit,",
  },
  "teaserMidList": [
    {},
    {},
    {},
    {}
  ],
  "teaserSocialList": [
    {},
    {},
    {},
    {},
    {},
    {},
    {},
    {},
    {}
  ],
  "teaserMainList": [
    {},
    {},
    {},
    {}
  ]
}