{
  "bodyClass": "mod-pancakes",
  "teaserleft-img": {
  },
  "teaser-text": {
    "teaser-label-text": "Lorem ipsum dolor sit amet",
    "teaser-headline-text": "Lorem ipsum dolor sit amet, consectetur adipisicing elit, ",
    "teaser-comment-text": "",
    "teaser-description-text": "Lorem ipsum dolor sit amet, consectetur adipisicing elit,",
  },
  "teaserMidList": [
    {},
    {},
    {},
    {},
    {},
    {},
    {},
    {},
    {},
    {},
    {},
    {}
  ],
  "teaserSocialList": [
    {},
    {},
    {},
    {},
    {},
    {},
    {},
    {},
    {}
  ]
}