{
    "sportList" : [
    {
      "title": "World Cup 2018",
      "url": ""
    },
    {
      "title": "Boxing",
      "url": ""
    },
    {
      "title": "WWE",
      "url": ""
    },
    {
      "title": "F1",
      "url": ""
    },
    {
      "title": "Cricket",
      "url": ""
    },
    {
      "title": "Golf",
      "url": ""
    },
    {
      "title": "Tennis",
      "url": ""
    }
  ],
  "otherSportsList" : [
    {
      "title": "Rugby Union",
      "url": ""
    },
    {
      "title": "Rugby League",
      "url": ""
    },
    {
      "title": "UFC",
      "url": ""
    },
    {
      "title": "Athletics",
      "url": ""
    },
    {
      "title": "Darts",
      "url": ""
    }
  ],

  "newsLabel" : "News",
  "politicsLabel" : "Politics",
  "sportLabel" : "Sport",
  "othersportLabel" : "Other Sports",
  "expandLabel" : "Expand",
  "myAccountLabel" : "My Account",
  "subscription" : "Subscriptions",
  "signout" : "Sign Out",
  "loadnavigation" : "Load mobile navigation",
  "logoText" : "mirror",
  "tvcnnmainvideourl": "http://source.unsplash.com/random/780x439/?lifestyle&1",
  "tvStoryList": [
    {
        "tvstoryimageurl": "https://source.unsplash.com/random/780x439/?lifestyle&2",
        "nowplay": "Lore",
        "tvstorytime": "01:01",
        "tvstoryitemtitle": "Lorem ipsum dolor sit amet, consectetur adipisicing elit",
        "tvstoryitemdesc": "Lorem ipsum dolor sit amet, consectetur adipisicing elit",
        "tvstoryitemdate": "05 Jun",
    },
    {
        "tvstoryimageurl": "https://source.unsplash.com/random/780x439/?lifestyle&3",
    },
    {
        "tvstoryimageurl": "https://source.unsplash.com/random/780x439/?lifestyle&4",
    },
    {
        "tvstoryimageurl": "https://source.unsplash.com/random/780x439/?lifestyle&5",
    },
    {
        "tvstoryimageurl": "https://source.unsplash.com/random/780x439/?lifestyle&6",
    },
    {
        "tvstoryimageurl": "https://source.unsplash.com/random/780x439/?lifestyle&7",
    },
    {
        "tvstoryimageurl": "https://source.unsplash.com/random/780x439/?lifestyle&8",
    },
    {
        "tvstoryimageurl": "https://source.unsplash.com/random/780x439/?lifestyle&9",
    },
    {
        "tvstoryimageurl": "https://source.unsplash.com/random/780x439/?lifestyle&10",
    },
    {
        "tvstoryimageurl": "https://source.unsplash.com/random/780x439/?lifestyle&11",
    },
    {
        "tvstoryimageurl": "https://source.unsplash.com/random/780x439/?lifestyle&12",
    },
    {
        "tvstoryimageurl": "https://source.unsplash.com/random/780x439/?lifestyle&13",
    },
    {
        "tvstoryimageurl": "https://source.unsplash.com/random/780x439/?lifestyle&14",
    },
    {
        "tvstoryimageurl": "https://source.unsplash.com/random/780x439/?lifestyle&15",
    },
  ],
  "tvCnnVideoListActive": [
    {
        "tvcnnvideoimage": "https://source.unsplash.com/random/140x79/?lifestyle&16",
        "tvcnnvideocontentheadline": "",
        "tvcnnvideotime": "",
    },
    {
        "tvcnnvideoimage": "https://source.unsplash.com/random/140x79/?lifestyle&17",
    },
    {
        "tvcnnvideoimage": "https://source.unsplash.com/random/140x79/?lifestyle&18",
    },
    {
        "tvcnnvideoimage": "https://source.unsplash.com/random/140x79/?lifestyle&19",
    },
    {
        "tvcnnvideoimage": "https://source.unsplash.com/random/140x79/?lifestyle&20",
    },
    {
        "tvcnnvideoimage": "https://source.unsplash.com/random/140x79/?lifestyle&21",
    },
    {
        "tvcnnvideoimage": "https://source.unsplash.com/random/140x79/?lifestyle&22",
    },
    {
        "tvcnnvideoimage": "https://source.unsplash.com/random/140x79/?lifestyle&23",
    },
    {
        "tvcnnvideoimage": "https://source.unsplash.com/random/140x79/?lifestyle&24",
    },
    {
        "tvcnnvideoimage": "https://source.unsplash.com/random/140x79/?lifestyle&25",
    },
    {
        "tvcnnvideoimage": "https://source.unsplash.com/random/140x79/?lifestyle&26",
    },
    {
        "tvcnnvideoimage": "https://source.unsplash.com/random/140x79/?lifestyle&27",
    },
    {
        "tvcnnvideoimage": "https://source.unsplash.com/random/140x79/?lifestyle&28",
    },
    {
        "tvcnnvideoimage": "https://source.unsplash.com/random/140x79/?lifestyle&29",
    },
    {
        "tvcnnvideoimage": "https://source.unsplash.com/random/140x79/?lifestyle&30",
    },
    {
        "tvcnnvideoimage": "https://source.unsplash.com/random/140x79/?lifestyle&31",
    },
  ],
  "whiteTvList--temp": [
    {
        "whitetv2col": "whitetv-item-2col1",
        "whitetv3col": "whitetv-item-3col1",
        "whitetv4col": "whitetv-item-4col1",
        "tvwhitetvimage": "https://source.unsplash.com/random/255x144/?lifestyle&32",
        "whitetvcontentheadline": "Lorem ipsum dolor sit amet, consectetur adipisicing elit",
    },
    {
        "whitetv2col": "whitetv-item-2col2",
        "whitetv3col": "whitetv-item-3col2",
        "whitetv4col": "whitetv-item-4col2",
        "tvwhitetvimage": "https://source.unsplash.com/random/255x144/?lifestyle&33",
    },
    {
        "whitetv2col": "whitetv-item-2col1",
        "whitetv3col": "whitetv-item-3col3",
        "whitetv4col": "whitetv-item-4col3",
        "tvwhitetvimage": "https://source.unsplash.com/random/255x144/?lifestyle&34",
    },
    {
        "whitetv2col": "whitetv-item-2col2",
        "whitetv3col": "whitetv-item-3col1",
        "whitetv4col": "whitetv-item-4col4",
        "tvwhitetvimage": "https://source.unsplash.com/random/255x144/?lifestyle&35",
    },
    {
        "whitetv2col": "whitetv-item-2col1",
        "whitetv3col": "whitetv-item-3col2",
        "whitetv4col": "whitetv-item-4col1",
        "tvwhitetvimage": "https://source.unsplash.com/random/255x144/?lifestyle&36",
    },
    {
        "whitetv2col": "whitetv-item-2col2",
        "whitetv3col": "whitetv-item-3col3",
        "whitetv4col": "whitetv-item-4col2",
        "tvwhitetvimage": "https://source.unsplash.com/random/255x144/?lifestyle&37",
    },
    {
        "whitetv2col": "whitetv-item-2col1",
        "whitetv3col": "whitetv-item-3col1",
        "whitetv4col": "whitetv-item-4col3",
        "tvwhitetvimage": "https://source.unsplash.com/random/255x144/?lifestyle&38",
    },
    {
        "whitetv2col": "whitetv-item-2col2",
        "whitetv3col": "whitetv-item-3col2",
        "whitetv4col": "whitetv-item-4col4",
        "tvwhitetvimage": "https://source.unsplash.com/random/255x144/?lifestyle&39",
    },
  ],
  "blackTvList--temp": [
    {
        "whitetv2col": "whitetv-item-2col1",
        "whitetv3col": "whitetv-item-3col1",
        "whitetv4col": "whitetv-item-4col1",
        "tvwhitetvimage": "https://source.unsplash.com/random/255x144/?lifestyle&40",
    },
    {
        "whitetv2col": "whitetv-item-2col2",
        "whitetv3col": "whitetv-item-3col2",
        "whitetv4col": "whitetv-item-4col2",
        "tvwhitetvimage": "https://source.unsplash.com/random/255x144/?lifestyle&41",
    },
    {
        "whitetv2col": "whitetv-item-2col1",
        "whitetv3col": "whitetv-item-3col3",
        "whitetv4col": "whitetv-item-4col3",
        "tvwhitetvimage": "https://source.unsplash.com/random/255x144/?lifestyle&42",
    },
    {
        "whitetv2col": "whitetv-item-2col2",
        "whitetv3col": "whitetv-item-3col1",
        "whitetv4col": "whitetv-item-4col4",
        "tvwhitetvimage": "https://source.unsplash.com/random/255x144/?lifestyle&43",
    },
  ],
  "whiteTvList": [
    {
      "teaser-img": {
        "teaser-thumb": {
          "src": "https://source.unsplash.com/random/1920x1278/?lifestyle&11",
          "alt": "Teaser thumb"
        }
      },
      "teaser-text": {
        "teaser-label-text": "Kate's work",
        "teaser-headline-text": "Generous Kate Spade donated designer handbags to interns so they'd 'feel and look great' when they showed up to work",
      }
    },
    {
      "teaser-img": {
        "teaser-thumb": {
          "src": "https://source.unsplash.com/random/1920x1278/?lifestyle&21",
          "alt": "Teaser thumb"
        }
      },
      "teaser-text": {
        "teaser-label-text": "Love Island",
        "teaser-headline-text": "What the Love Island girls are wearing and where to get their swimwear",
      }
    },
    {
      "teaser-img": {
        "teaser-thumb": {
          "src": "https://source.unsplash.com/random/1920x1278/?lifestyle&31",
          "alt": "Teaser thumb"
        }
      },
      "teaser-text": {
        "teaser-label-text": "Kate Spade",
        "teaser-headline-text": "The likes of Dani Dyer and Samira Mighty look to be setting trends already",
      }
    },
    {
      "teaser-img": {
        "teaser-thumb": {
          "src": "https://source.unsplash.com/random/1920x1278/?lifestyle&41",
          "alt": "Teaser thumb"
        }
      },
      "teaser-text": {
        "teaser-label-text": "H&M",
        "teaser-headline-text": "H&M is making its sizes bigger in UK stores, following complaints",
      }
    }
  ],
  "blackTvList": [
    {
      "teaser-img": {
        "teaser-thumb": {
          "src": "https://source.unsplash.com/random/1920x1278/?lifestyle&111",
          "alt": "Teaser thumb"
        }
      },
      "teaser-text": {
        "teaser-label-text": "Kate's work",
        "teaser-headline-text": "Generous Kate Spade donated designer handbags to interns so they'd 'feel and look great' when they showed up to work",
      }
    },
    {
      "teaser-img": {
        "teaser-thumb": {
          "src": "https://source.unsplash.com/random/1920x1278/?lifestyle&211",
          "alt": "Teaser thumb"
        }
      },
      "teaser-text": {
        "teaser-label-text": "Love Island",
        "teaser-headline-text": "What the Love Island girls are wearing and where to get their swimwear",
      }
    },
    {
      "teaser-img": {
        "teaser-thumb": {
          "src": "https://source.unsplash.com/random/1920x1278/?lifestyle&311",
          "alt": "Teaser thumb"
        }
      },
      "teaser-text": {
        "teaser-label-text": "Kate Spade",
        "teaser-headline-text": "The likes of Dani Dyer and Samira Mighty look to be setting trends already",
      }
    },
    {
      "teaser-img": {
        "teaser-thumb": {
          "src": "https://source.unsplash.com/random/1920x1278/?lifestyle&411",
          "alt": "Teaser thumb"
        }
      },
      "teaser-text": {
        "teaser-label-text": "H&M",
        "teaser-headline-text": "H&M is making its sizes bigger in UK stores, following complaints",
      }
    }
  ],
}